<?xml version="1.0" encoding="UTF-8"?>
<session version="1.0">
<refactoring comment="Delete resource &apos;JDBCjava&apos;" deleteContents="false" description="Delete resource &apos;JDBCjava&apos;" element1="/JDBCjava" flags="7" id="org.eclipse.ltk.core.refactoring.delete.resources" resources="1" stamp="1628701722250"/>
</session>